<?xml version="1.0" encoding="utf-8"?>
<!-- Uploaded to SVGRepo https://www.svgrepo.com -->
<svg version="1.1" id="pandemic" xmlns="http://www.w3.org/2000/svg" xmlns:xlink="http://www.w3.org/1999/xlink" x="0px" y="0px"
	 viewBox="0 0 256.3 256" style="enable-background:new 0 0 256.3 256;" xml:space="preserve">
<path fill="#bf1e2e" d="M193.9,152.9c9.5,0,17.1,7.7,17.1,17.1s-7.7,17.1-17.1,17.1c-9.5,0-17.1-7.7-17.1-17.1S184.4,152.9,193.9,152.9z
	 M189.9,212.6c0-9.5-7.7-17.1-17.1-17.1s-17.1,7.7-17.1,17.1s7.7,17.1,17.1,17.1S189.9,222.1,189.9,212.6z M200.6,212.6
	c0,9.5,7.6,17.1,17.1,17.1s17.1-7.6,17.1-17.1s-7.6-17.1-17.1-17.1S200.6,203.1,200.6,212.6z M145.5,232.9h-19.3H107
	c-11.5,0-18.8,11.4-19,23.3h76.7C164.5,244.2,157.2,232.9,145.5,232.9z M167.4,170c0-9.5-7.7-17.1-17.1-17.1s-17.1,7.7-17.1,17.1
	s7.7,17.1,17.1,17.1S167.4,179.5,167.4,170z M237.4,232.8h-19.3h-19.4v0.1c-11.5,0-18.8,11.4-19,23.3h76.7
	C256.4,244.1,249.1,232.8,237.4,232.8z M38.3,229.7c9.5,0,17.1-7.7,17.1-17.1s-7.7-17.1-17.1-17.1c-9.5,0-17.1,7.7-17.1,17.1
	S28.9,229.7,38.3,229.7z M57.4,232.8H38.1H18.8c-11.6,0-18.9,11.5-19,23.4h76.6C76.3,244.1,69,232.8,57.4,232.8z M60.2,187.2
	c9.5,0,17.1-7.7,17.1-17.1s-7.7-17.1-17.1-17.1s-17.1,7.7-17.1,17.1S50.8,187.2,60.2,187.2z M126.2,229.7c9.5,0,17.1-7.6,17.1-17.1
	s-7.6-17.1-17.1-17.1c-9.5,0-17.1,7.6-17.1,17.1S116.7,229.7,126.2,229.7z M100.5,212.6c0-9.5-7.7-17.1-17.1-17.1
	s-17.1,7.7-17.1,17.1s7.7,17.1,17.1,17.1S100.5,222.1,100.5,212.6z M123.6,170c0-9.5-7.7-17.1-17.1-17.1s-17.1,7.7-17.1,17.1
	s7.7,17.1,17.1,17.1S123.6,179.5,123.6,170z M53.3,75.2h31.6c0.9,7.7,3.9,15.2,8.9,21.6l-7.3,7.3l-5.7-5.7l-6,6l18.8,18.8l6-6
	l-5.7-5.7l7.3-7.3c6.4,5,13.9,8,21.6,8.9v18.4h-8v8.6h26.5v-8.6h-8v-18.4c7.7-0.9,15.2-3.9,21.6-8.9l18.8,18.8l-5.7,5.7l6,6
	l18.8-18.8l-6-6l-5.7,5.7l-18.7-18.7c5-6.4,8-13.9,9-21.6h8.4v8h8.6V56.7h-8.6v8h-8.4c-0.9-7.7-3.9-15.2-9-21.6l7.2-7.2l5.7,5.7l6-6
	l-18.8-18.8l-6,6l5.7,5.7l-7.2,7.2c-6.4-5-13.9-8-21.6-9V8.4h8v-8.6h-26.5v8.6h8v18.3c-7.7,0.9-15.2,3.9-21.6,9l-13-13l5.7-5.7l-6-6
	L69,29.8l6,6l5.7-5.7l13,13c-5,6.4-8,13.9-8.9,21.6H53.3v-8h-8.6v26.5h8.6V75.2z"/>
</svg>
